<?xml version="1.0" encoding="utf-8"?>
<!-- Generator: Adobe Illustrator 19.0.0, SVG Export Plug-In . SVG Version: 6.00 Build 0)  -->
<svg version="1.1" id="Layer_2" xmlns="http://www.w3.org/2000/svg" xmlns:xlink="http://www.w3.org/1999/xlink" x="0px" y="0px"
	 viewBox="-69 70.7 60.4 60.3" style="enable-background:new -69 70.7 60.4 60.3;" xml:space="preserve">
<style type="text/css">
	.st0{fill:#191919;}
</style>
<g>
	<path class="st0" d="M-47.1,131.2c0-1.8,0-5.2,0-7c0-8,0-16,0-24c0-0.1,0-0.1,0-0.2c0-0.2-0.1-0.3-0.3-0.3c-0.1,0-0.2,0-0.3,0
		c-1.8,0-3.5,0-5.3,0c-0.4,0-0.4,0-0.4-0.4c0-2.7,0-5.5,0-8.2c0-0.4,0-0.4,0.4-0.4c1.8,0,3.6,0,5.4,0c0.5,0,0.5,0,0.5-0.5
		c0-2.5,0-5,0-7.4c0-1.4,0.2-2.9,0.5-4.3c0.6-2.6,2.1-4.5,4.3-6c1.5-1,3.2-1.5,5-1.7c1.8-0.2,3.5-0.1,5.2,0c1.7,0.1,3.4,0.2,5.1,0.5
		c0.8,0.1,1.6,0.3,2.4,0.5c0.3,0.1,0.3,0.2,0.3,0.5c-0.5,2.8-1,5.6-1.4,8.4c-0.1,0.4-0.1,0.4-0.5,0.3c-1.6-0.4-3.3-0.7-5-0.6
		c-0.9,0-1.7,0.2-2.5,0.5c-1.2,0.6-1.8,1.5-1.8,2.8c0,2.2,0,4.5,0,6.7c0,0.4,0,0.4,0.4,0.4c3,0,6.1,0,9.1,0c0.5,0,0.5,0,0.4,0.5
		c-0.1,1.1-0.2,2.2-0.3,3.2c-0.1,1.7-0.3,3.3-0.4,5c0,0.2-0.1,0.3-0.3,0.2c-0.1,0-0.2,0-0.3,0c-2.8,0-5.5,0-8.3,0
		c-0.5,0-0.5,0-0.5,0.5c0,9.7,0,21.4,0,31.1C-35.4,131.2-43.2,131.2-47.1,131.2z"/>
</g>
</svg>
