<?xml version="1.0" encoding="utf-8"?>
<!-- Generator: Adobe Illustrator 19.0.0, SVG Export Plug-In . SVG Version: 6.00 Build 0)  -->
<svg version="1.1" id="Layer_1" xmlns="http://www.w3.org/2000/svg" xmlns:xlink="http://www.w3.org/1999/xlink" x="0px" y="0px"
	 viewBox="-21 24.6 156.9 153.4" style="enable-background:new -21 24.6 156.9 153.4;" xml:space="preserve">
<style type="text/css">
	.st0{fill:#1A1A1A;}
	.st1{fill:#FEE41D;}
	.st2{fill:#FFE515;}
	.st3{fill:#E42026;}
	.st4{fill:#EB1F15;}
</style>
<g>
	<path class="st0" d="M55.1,24.6c-3.7,0-6.6,1.8-6.6,4v6.7v6.7v122.5v6.7v6.7h13.3v-6.7v-6.7V42.1v-6.7v-6.7
		C61.7,26.4,58.8,24.6,55.1,24.6"/>
</g>
<g>
	<g>
		<g>
			<polygon id="SVGID_1_" class="st0" points="-1.5,34.9 -21,49.2 -1.5,63.4 116.2,63.4 96.8,49.2 116.2,34.9 			"/>
		</g>
	</g>
</g>
<g>
	<polygon class="st0" points="116.4,34.9 116.2,34.9 116.4,35.1 	"/>
	<polygon class="st0" points="116.4,63.2 116.2,63.4 116.4,63.4 	"/>
</g>
<g>
	<g>
		<polygon id="SVGID_4_" class="st1" points="-1.5,99.8 -21,114.1 -1.5,128.3 -1.5,128.3 -1.5,128.3 116.2,128.3 96.8,114.1 
			116.2,99.8 		"/>
	</g>
</g>
<g>
	<polygon class="st2" points="116.4,99.8 116.2,99.8 116.4,100 	"/>
	<polygon class="st2" points="116.4,128.1 116.2,128.3 116.4,128.3 	"/>
</g>
<g>
	<g>
		<g>
			<polygon id="SVGID_6_" class="st3" points="-1.4,67.3 18.1,81.6 -1.4,95.8 116.4,95.8 135.9,81.6 116.4,67.3 			"/>
		</g>
	</g>
</g>
<g>
	<polygon class="st4" points="-1.6,67.3 -1.4,67.3 -1.6,67.5 	"/>
	<polygon class="st4" points="-1.6,95.6 -1.4,95.8 -1.6,95.8 	"/>
</g>
</svg>
